Car #,Speed: 0,Speed: 40,Speed: 50,Speed: 70,Speed: 90,Speed: 100,Speed: 110,Speed: 130
0,4.48899,12.602,7.93177,32.4445,60.5546,56.0518,76.0007,101.365
1,-0.561011,11.1108,11.7965,35.3948,57.9588,63.6805,78.727,107.571
2,-3.02689,1.03175,25.1821,28.479,48.5566,61.8898,76.6653,104.722
3,-6.70132,11.5823,8.69358,25.527,49.7054,59.2811,70.483,107.165
4,-5.49123,11.0172,8.43203,26.6295,52.012,66.0341,81.1067,115.733
5,1.96217,5.10659,5.89579,36.9719,48.4752,71.6416,83.6499,111.316
6,5.3934,7.88628,15.3244,35.0379,53.5495,71.2402,81.3549,113.507
7,1.63565,11.1314,19.6684,27.9187,49.1378,67.668,84.3406,105.267
8,-0.261377,3.85402,14.7941,31.4941,52.5009,70.9246,76.8773,106.695
9,2.64496,6.32143,17.0739,28.6738,46.0595,60.9116,76.2826,109.836
